<?xml version="1.0" encoding="UTF-8" standalone="no"?>
<svg xmlns="http://www.w3.org/2000/svg" viewBox="0 0 124 52">
    <path fill="#fdfdfd" d="M85.198 3.623c15.017 0 28.001 4.96 33.802 12.058C113.275 9.453 101.346 5.15 87.601 5.15c-19.279 0-35.004 8.47-35.004 18.851 0 10.38 15.725 18.852 35.004 18.852 13.745 0 25.674-4.305 31.399-10.533-5.806 7.098-18.785 12.058-33.802 12.058-15.674 0-29.123-5.402-34.52-12.99-4.1 7.588-14.32 12.99-26.23 12.99-10.409 0-19.531-4.124-24.4-10.234 4.651 5.23 12.775 8.709 21.991 8.709 14.386 0 26.116-8.471 26.116-18.852 0-10.38-11.73-18.852-26.116-18.852-9.216 0-17.34 3.478-21.991 8.709 4.869-6.11 13.991-10.234 24.4-10.234 11.91 0 22.13 5.397 26.23 12.99 5.397-7.592 18.846-12.99 34.52-12.99ZM22.225 7.7c8.466 0 15.849 3.501 19.597 8.627-3.53-4.157-9.839-6.931-17.003-6.931-10.234 0-18.709 5.658-19.869 12.908h17.275V24H4.817c0 8.043 8.984 14.604 20.002 14.604 7.164 0 13.473-2.78 17.003-6.931-3.748 5.126-11.131 8.627-19.597 8.627C9.982 40.3 0 32.98 0 24S9.982 7.7 22.225 7.7Zm66.673.019h.285c.153 0 .305.01.452.014.138 0 .271.014.404.019h.04c.07 0 .138.01.209.01h.1l.48.028h.04c.04 0 .08 0 .123.01 15.44.945 27.493 7.853 27.493 16.19 0 6.728-7.848 12.524-18.989 15.009 9.673-2.343 16.395-7.402 16.395-13.241 0-.599-.07-1.188-.209-1.767H91.112v16.186a55.46 55.46 0 0 1-2.224.095zm-3.335 32.553a68.754 68.754 0 0 1-2.218-.11V11.277c-3.302.247-6.424.78-9.26 1.558V24h-2.223V13.51c-7.796 2.618-12.965 7.136-12.965 12.257 0 5.84 6.722 10.899 16.395 13.241C64.151 36.523 56.303 30.728 56.303 24c0-8.31 11.972-15.198 27.336-16.181l.447-.03c.128 0 .252-.013.38-.018.109 0 .214-.01.323-.014.18-.01.356-.014.532-.02h.23zm29.565-17.968c-2.76-5.8-12.281-10.267-24.006-11.05v11.05z"/>
</svg>
